<?xml version="1.0" encoding="utf-8"?>
<!-- Generator: Adobe Illustrator 16.0.0, SVG Export Plug-In . SVG Version: 6.00 Build 0)  -->
<!DOCTYPE svg PUBLIC "-//W3C//DTD SVG 1.1//EN" "http://www.w3.org/Graphics/SVG/1.1/DTD/svg11.dtd">
<svg version="1.1" id="Layer_1" xmlns="http://www.w3.org/2000/svg" xmlns:xlink="http://www.w3.org/1999/xlink" x="0px" y="0px"
	 width="125.355px" height="67.61px" viewBox="0 0 125.355 67.61" enable-background="new 0 0 125.355 67.61" xml:space="preserve">
<path fill="#FFFFFF" d="M68.915,0.373c0.167,0.145,0.303,0.209,0.352,0.315c0.102,0.218,0.197,0.42,0.455,0.485
	c0.023,0.006,0.052,0.029,0.062,0.051c0.244,0.521,0.787,0.892,0.764,1.546c-0.005,0.131-0.022,0.281,0.15,0.339
	c0.012,0.005,0.031,0.016,0.031,0.025c0.013,0.582,0.606,0.868,0.712,1.399c0.033,0.16,0.035,0.325,0.065,0.485
	c0.037,0.185,0.056,0.386,0.146,0.544c0.076,0.139,0.242,0.229,0.422,0.387c0.002,0.015,0.024,0.108,0.022,0.201
	c-0.006,0.262,0.065,0.474,0.33,0.584c0.034,0.014,0.065,0.073,0.072,0.115c0.049,0.279,0.102,0.557,0.132,0.838
	c0.039,0.361,0.031,0.362,0.393,0.372c0.157,0.426,0.269,0.526,0.602,0.564c0.11,0.255,0.217,0.495,0.315,0.739
	c0.024,0.061,0.053,0.148,0.028,0.199c-0.169,0.354,0.049,0.671,0.094,1c0.041,0.302,0.167,0.595,0.267,0.887
	c0.008,0.024,0.106,0.017,0.176,0.025c-0.001,0.118,0.003,0.241-0.005,0.363c-0.029,0.49,0.023,0.97,0.125,1.45
	c0.021,0.102,0.005,0.215-0.009,0.321c-0.054,0.419,0.047,0.811,0.349,1.091c0.146,0.137,0.169,0.266,0.112,0.385
	c-0.177,0.374-0.242,0.771-0.315,1.169c-0.038,0.198-0.404,0.415-0.578,0.326c-0.317-0.161-0.67-0.234-0.975-0.447
	c-0.145-0.102-0.364-0.178-0.552-0.237c-0.346-0.108-0.65-0.285-0.972-0.438c-0.129-0.062-0.287-0.07-0.434-0.097
	c-0.134-0.025-0.139-0.286-0.371-0.178c-0.062,0.028-0.222-0.176-0.35-0.253c-0.075-0.045-0.176-0.057-0.266-0.071
	c-0.184-0.028-0.271-0.123-0.198-0.389c-0.111,0.124-0.171,0.189-0.248,0.274c-0.174-0.283-0.412-0.322-0.678-0.358
	c-0.232-0.031-0.449-0.162-0.666-0.246c0.054-0.292,0.096-0.56,0.151-0.827c0.122-0.582,0.158-1.164,0.079-1.757
	c-0.118-0.887-0.032-1.777-0.006-2.667c0.014-0.477,0.007-0.957-0.023-1.434c-0.062-0.959-0.014-1.914,0.059-2.872
	c0.04-0.531,0.018-1.067,0.012-1.601c-0.006-0.71-0.03-1.422-0.023-2.132C68.723,0.721,68.824,0.589,68.915,0.373"/>
<polygon fill="#FFFFFF" points="74.795,28.975 74.792,28.975 74.784,28.984 "/>
<path fill="#FFFFFF" d="M48.072,32.918c0.013-0.015,0.025-0.03,0.038-0.044c-0.015,0.012-0.029,0.024-0.044,0.035L48.072,32.918z"/>
<path fill="#FFFFFF" d="M66.763,7.079c-0.007,0.001-0.011,0.002-0.017,0.003c0.002,0.002,0.003,0.004,0.004,0.005L66.763,7.079z"/>
<polygon fill="#FFFFFF" points="59.846,12.841 59.845,12.846 59.85,12.847 "/>
<path fill="#FFFFFF" d="M125.143,57.26c-0.414-0.212-0.833-0.415-1.245-0.632c-0.084-0.045-0.19-0.125-0.209-0.207
	c-0.074-0.304-0.294-0.415-0.561-0.49c-0.195-0.058-0.479-0.074-0.56-0.209c-0.167-0.273-0.412-0.273-0.653-0.337
	c-0.05-0.014-0.126-0.041-0.136-0.073c-0.065-0.267-0.312-0.216-0.466-0.283c-0.043-0.177-0.083-0.34-0.116-0.476
	c-0.438,0.019-0.852,0.036-1.267,0.054c-0.007-0.021-0.015-0.044-0.021-0.066c0.218-0.091,0.436-0.183,0.725-0.304
	c-0.348-0.085-0.732,0.06-0.792-0.409c-0.25,0.105-0.446,0.056-0.607-0.117c-0.141-0.15-0.274-0.163-0.459-0.051
	c-0.088,0.054-0.234,0.012-0.375,0.013c0.085-0.297,0.528-0.197,0.461-0.555c-0.063-0.007-0.175,0-0.182-0.025
	c-0.055-0.174-0.086-0.354-0.134-0.571c-0.249,0.045-0.529,0.109-0.813,0.142c-0.415,0.047-0.835,0.074-1.253,0.1
	c-0.104,0.008-0.23,0.011-0.24-0.166c0.161-0.025,0.325-0.051,0.488-0.078c-0.001-0.006-0.001-0.014-0.002-0.021
	c-0.353-0.023-0.704-0.047-1.057-0.071c0-0.021,0.002-0.042,0.003-0.062c0.247-0.105,0.496-0.21,0.676-0.286
	c0.077-0.112,0.104-0.195,0.148-0.207c0.204-0.056,0.415-0.094,0.622-0.138c-0.069-0.076-0.134-0.093-0.197-0.09
	c-0.41,0.019-0.82,0.032-1.229,0.068c-0.263,0.023-0.489,0.023-0.536-0.301c-0.398,0.019-0.766,0.04-1.132,0.054
	c-1.055,0.043-2.11,0.077-3.163,0.126c-0.684,0.032-1.365,0.092-2.049,0.124c-0.768,0.036-1.532-0.003-2.287-0.15
	c-0.404-0.079-0.807-0.159-1.209-0.24c-0.323-0.066-0.584-0.319-0.939-0.305c-0.189,0.009-0.381-0.04-0.571-0.048
	c-0.204-0.01-0.41-0.022-0.516,0.228c-0.023,0.054-0.168,0.109-0.226,0.086c-0.379-0.152-0.77-0.288-1.022-0.65
	c-0.095-0.135-0.231-0.24-0.393-0.399c-0.003-0.511,0.319-0.978,0.212-1.504c-0.002-0.011,0.011-0.024,0.019-0.036
	c0.235-0.386,0.245-0.836,0.353-1.258c0.036-0.14,0.039-0.288,0.071-0.429c0.063-0.281,0.204-0.553,0.093-0.834
	c-0.101,0.002-0.166,0.003-0.272,0.005c0.084,0.383-0.215,0.701-0.135,1.081c0.003,0.016-0.049,0.043-0.082,0.066
	c0.014-0.382,0.03-0.761,0.047-1.17c-0.056,0.162-0.103,0.3-0.149,0.437c-0.03-0.008-0.061-0.015-0.091-0.024
	c0.009-0.305,0.021-0.609,0.027-0.916c0.003-0.161-0.015-0.324-0.008-0.486c0.005-0.159-0.031-0.373,0.056-0.468
	c0.239-0.259,0.246-0.588,0.269-0.876c0.053-0.717,0.268-1.391,0.432-2.079c0.012-0.048,0.074-0.086,0.115-0.126
	c0.027,0.011,0.056,0.022,0.084,0.033c-0.109,0.524-0.218,1.05-0.327,1.575c0.021,0.006,0.04,0.01,0.061,0.017
	c0.062-0.139,0.125-0.277,0.188-0.416c0.023,0.006,0.046,0.011,0.068,0.018c-0.109,0.63-0.22,1.261-0.335,1.926
	c0.153-0.033,0.24-0.052,0.314-0.067c0.168-0.922,0.331-1.823,0.495-2.73c0.019,0.045,0.035,0.085,0.059,0.144
	c0.023-0.191,0.034-0.364,0.069-0.533c0.035-0.163,0.142-0.322,0.132-0.478c-0.012-0.175,0.126-0.253,0.152-0.389
	c0.051-0.265,0.101-0.526,0.176-0.788c0.152-0.534,0.222-1.093,0.293-1.647c0.097-0.743,0.277-1.478,0.227-2.236
	c-0.014-0.213-0.007-0.429-0.01-0.643c0.168,0.299,0.012,0.65,0.192,0.979c0.306-0.344,0.043-0.753,0.203-1.085
	c0.223,0.136,0.223,0.14,0.222,1.363c0.255-0.131,0.264-0.131,0.254-0.328c-0.017-0.342-0.055-0.683-0.069-1.024
	c-0.021-0.438-0.197-0.893,0.127-1.321c0.038,0.038,0.074,0.073,0.109,0.109c0.014,0.066,0.027,0.134,0.041,0.2
	c0.06,0.047,0.119,0.094,0.24,0.188c-0.025-0.362-0.055-0.653-0.275-0.904c-0.085-0.097-0.184-0.229-0.184-0.344
	c-0.001-0.204,0.048-0.416,0.116-0.609c0.105-0.295,0.11-0.585,0.056-0.886c-0.013-0.066-0.012-0.135-0.017-0.203
	c0.017-0.004,0.034-0.008,0.051-0.013c0.103,0.182,0.207,0.363,0.321,0.564c0.109-0.303,0.019-0.549-0.074-0.792
	c-0.188-0.492-0.479-0.913-0.828-1.311c-0.836-0.954-1.785-1.74-2.974-2.213c-0.375-0.149-0.751-0.246-1.162-0.2
	c-0.599,0.067-1.2,0.116-1.801,0.159c-0.58,0.041-1.078,0.267-1.566,0.618c0.104,0.051,0.237,0.097,0.233,0.118
	c-0.05,0.267,0.194,0.22,0.315,0.28c-0.029,0.202-0.155,0.217-0.302,0.224c-0.546,0.025-1.091,0.066-1.638,0.088
	c-0.849,0.034-1.699,0.06-2.548,0.084c-0.285,0.008-0.571,0.001-0.856,0.001c-0.004-0.028-0.008-0.055-0.012-0.083
	c0.069-0.025,0.136-0.068,0.206-0.075c0.491-0.043,0.983-0.07,1.473-0.12c0.283-0.028,0.609-0.014,0.833-0.152
	c0.346-0.215,0.721-0.205,1.08-0.299c0.009-0.002,0.01-0.035,0.019-0.072c-0.179-0.001-0.35-0.001-0.514-0.002
	c-0.014-0.074-0.023-0.133-0.028-0.157c-0.213-0.026-0.39-0.045-0.562-0.072c-0.157-0.024-0.312-0.086-0.467-0.082
	c-1.274,0.043-2.548,0.103-3.825,0.037c-0.468-0.025-0.896-0.124-1.282-0.401c-0.071-0.051-0.22-0.051-0.304-0.013
	c-0.285,0.129-0.545,0.11-0.807-0.054c-0.077-0.049-0.171-0.071-0.288-0.117c0.02-0.111,0.032-0.229,0.061-0.344
	c0.024-0.101,0.091-0.196,0.094-0.295c0.004-0.105-0.043-0.213-0.085-0.385c0.094,0.061,0.114,0.072,0.13,0.086
	c0.011,0.007,0.013,0.024,0.022,0.032c0.009,0.007,0.024,0.006,0.036,0.008c0.126-0.365,0.126-0.365,0.518-0.268
	c0.011,0.091,0.022,0.182,0.041,0.334c0.057-0.15,0.091-0.238,0.121-0.318c0.261-0.07,0.521-0.184,0.629,0.216
	c0.048-0.107,0.08-0.179,0.095-0.212c0.608,0.039,1.189,0.077,1.756,0.113c0.068-0.103,0.145-0.186,0.187-0.284
	c0.109-0.246,0.202-0.498,0.303-0.748c-0.189-0.162,0.05-0.28,0.045-0.425c-0.006-0.16,0.008-0.321,0.015-0.481
	c0.022-0.541,0.152-1.079,0.021-1.622c-0.028-0.12-0.057-0.241-0.068-0.363c-0.122-1.171-0.816-1.97-1.712-2.639
	c-0.372-0.278-0.773-0.524-1.117-0.833c-0.552-0.5-1.136-0.921-1.82-1.237c-1.02-0.472-1.986-0.343-2.952,0.104
	c-0.318,0.147-0.613,0.348-0.92,0.523c-0.436,0.25-0.776,0.602-1.095,0.985c-0.156,0.188-0.315,0.396-0.521,0.512
	c-0.401,0.226-0.601,0.583-0.771,0.975c-0.23,0.525-0.429,1.068-0.694,1.576c-0.338,0.646-0.494,1.336-0.558,2.045
	c-0.079,0.882-0.093,1.77-0.286,2.639c-0.011,0.048,0.012,0.104,0.016,0.156c0.095,0.993,0.318,1.934,0.938,2.757
	c0.498,0.661,0.982,1.326,1.664,1.81c0.362,0.257,0.693,0.537,0.915,0.93c0.045,0.082,0.127,0.143,0.191,0.214
	c0.465,0.519,1.034,0.894,1.673,1.16c0.245,0.104,0.321,0.28,0.304,0.518c-0.01,0.135-0.045,0.269-0.075,0.403
	c-0.168,0.746-0.308,1.497-0.248,2.268c0.009,0.12,0.061,0.236,0.081,0.356c0.032,0.183,0.07,0.368,0.076,0.553
	c0.006,0.204-0.015,0.409-0.034,0.613c-0.021,0.218-0.053,0.435-0.082,0.651c-0.022,0.174-0.053,0.348-0.073,0.522
	c-0.045,0.408-0.084,0.816-0.131,1.224c-0.019,0.16-0.067,0.316-0.076,0.475c-0.012,0.218,0.047,0.447-0.002,0.654
	c-0.143,0.595-0.315,1.184-0.492,1.77c-0.141,0.468-0.354,0.921-0.442,1.398c-0.108,0.588-0.326,1.129-0.535,1.679
	c-0.239,0.628-0.431,1.27-0.532,1.938c-0.034,0.223-0.13,0.45-0.251,0.642c-0.542,0.857-1.185,1.651-1.631,2.57
	c-0.035,0.072-0.095,0.136-0.15,0.194c-0.025,0.027-0.069,0.036-0.118,0.061c-0.07-0.062-0.141-0.121-0.23-0.198
	c-0.145,0.171-0.316,0.138-0.476-0.007c-0.047,0.103-0.078,0.17-0.121,0.265c-0.171-0.143-0.319-0.27-0.469-0.395
	c-0.012,0.013-0.025,0.024-0.038,0.036c0.107,0.149,0.215,0.298,0.317,0.44c-0.077,0.177-0.146,0.335-0.229,0.525
	c-0.127-0.092-0.23-0.167-0.33-0.237c-0.304,0.156,0.072,0.29-0.014,0.471c-0.112-0.079-0.233-0.142-0.321-0.234
	c-0.459-0.494-0.864-1.029-1.167-1.636c-0.068-0.135-0.208-0.281-0.189-0.401c0.04-0.248-0.105-0.406-0.187-0.598
	c-0.151-0.35-0.306-0.697-0.457-1.044c-0.058-0.146-0.115-0.293-0.172-0.438c-0.062-0.154-0.125-0.308-0.188-0.461
	c-0.037-0.071-0.074-0.142-0.111-0.213c-0.063-0.149-0.127-0.298-0.184-0.45c-0.002-0.006,0.074-0.042,0.114-0.063
	c-0.035-0.146-0.065-0.294-0.108-0.438c-0.302-1.022-0.597-2.047-0.67-3.119c-0.006-0.082-0.027-0.162-0.042-0.243
	c-0.041-0.234-0.155-0.46,0-0.706c0.046-0.073-0.03-0.222-0.055-0.368c-0.11,0.165-0.209,0.188-0.298,0.053
	c-0.041-0.064-0.052-0.153-0.062-0.233c-0.057-0.417-0.109-0.833-0.162-1.25c-0.005-0.041-0.013-0.092,0.007-0.122
	c0.193-0.303,0.026-0.605,0.007-0.909c-0.009-0.134-0.028-0.382-0.006-0.387c0.271-0.053,0.115-0.235,0.114-0.353
	c-0.006-0.296-0.033-0.593-0.051-0.89c0.031-0.004,0.062-0.009,0.094-0.012l0.208,0.635c0.02-0.189,0.003-0.373-0.038-0.551
	c-0.043-0.183-0.089-0.359,0.044-0.605c0.136,0.409,0.181,0.767,0.201,1.127c0.051,0.896,0.158,1.416,0.436,1.9
	c0.033-0.294,0.036-0.59,0.043-0.885c0.003-0.154-0.027-0.292,0.061-0.463c0.11-0.217,0.162-0.521,0.105-0.752
	c-0.207-0.838-0.244-1.693-0.325-2.543c-0.012-0.135,0.011-0.271,0.001-0.405c-0.018-0.264,0.102-0.547-0.127-0.782
	c-0.044-0.046-0.021-0.158-0.025-0.239c-0.02-0.345,0.039-0.682,0.071-1.022c0.078-0.826,0.054-1.662,0.058-2.494
	c0-0.188-0.011-0.4-0.094-0.561c-0.182-0.352-0.131-0.705-0.021-1.033c0.083-0.247-0.003-0.35-0.155-0.471
	c-0.07,0.041-0.125,0.071-0.271,0.155c0.082-0.239,0.135-0.382,0.178-0.529c0.011-0.029-0.015-0.069-0.036-0.148
	c-0.086,0.101-0.149,0.175-0.229,0.266c-0.198-0.212-0.152-0.452-0.13-0.684c0.002-0.009,0.068-0.012,0.105-0.018
	c0.148-0.129,0.092-0.276,0.044-0.431c-0.083,0.029-0.145,0.051-0.211,0.074c0.003-0.233,0.006-0.435,0.009-0.657
	c0.115-0.022,0.222-0.071,0.317-0.053c0.085,0.016,0.156,0.106,0.232,0.162c0.326-0.352,0.468-0.533,0.021-0.72
	c-0.188,0.298-0.387,0.005-0.587-0.009c-0.201-0.015-0.364-0.144-0.484-0.307c-0.042,0.14-0.075,0.249-0.105,0.351
	c-0.326-0.081-0.307-0.365-0.376-0.54c-0.164-0.02-0.31-0.006-0.419-0.061c-0.124-0.061-0.216-0.185-0.315-0.275
	c-0.06,0.075-0.1,0.127-0.152,0.195c-0.115-0.264-0.2-0.455-0.283-0.646c-0.035,0.036-0.069,0.071-0.124,0.129
	c0.017-0.255-0.098-0.253-0.265-0.132c-0.049-0.137-0.088-0.248-0.131-0.371c-0.069,0.062-0.126,0.114-0.188,0.17
	c-0.026-0.037-0.04-0.061-0.057-0.079c-0.154-0.155-0.251-0.374-0.543-0.349c-0.175,0.016-0.27-0.183-0.4-0.28
	c-0.121-0.09-0.326-0.061-0.487-0.108c-0.048-0.015-0.059-0.127-0.108-0.167c-0.127-0.096-0.257-0.199-0.403-0.255
	c-0.07-0.027-0.188,0.03-0.268,0.078c-0.08,0.048-0.128,0.146-0.204,0.201c-0.388,0.28-0.562,0.647-0.498,1.126
	c0.046,0.326,0.101,0.651,0.112,0.978c0.035,1.067,0.058,2.134,0.071,3.202c0.005,0.354,0.049,0.743-0.076,1.055
	c-0.181,0.453-0.213,0.888-0.146,1.349c0.118,0.799,0.171,1.599,0.133,2.408c-0.034,0.725-0.016,1.45-0.044,2.174
	c-0.021,0.562-0.03,1.128-0.132,1.678c-0.186,1.009-0.492,1.98-0.972,2.903c-0.331,0.639-0.671,1.269-1.042,1.885
	c-0.31,0.513-0.7,0.984-0.863,1.584c-0.048,0.177-0.171,0.346-0.295,0.49c-0.68,0.793-1.226,1.694-2.055,2.369
	c-0.496,0.404-1.014,0.552-1.623,0.514c-0.178-0.012-0.276-0.099-0.346-0.244c-0.255-0.528-0.539-1.046-0.755-1.591
	c-0.349-0.876-0.648-1.772-0.975-2.657c-0.065-0.176-0.119-0.406-0.253-0.492c-0.13-0.082-0.15-0.161-0.185-0.274
	c-0.029-0.1-0.077-0.193-0.123-0.302c-0.081,0.096-0.145,0.171-0.199,0.234c-0.229-0.428-0.259-0.871-0.262-1.328
	c-0.004-0.588-0.062-1.175-0.081-1.763c-0.036-1.023,0.055-2.05-0.12-3.07c-0.165-0.956-0.3-1.917-0.448-2.876
	c-0.095-0.621-0.182-1.243-0.289-1.863c-0.1-0.58-0.262-1.151-0.325-1.733c-0.088-0.814-0.146-1.635-0.152-2.454
	c-0.009-1.127-0.279-2.218-0.396-3.329c-0.053-0.486-0.098-0.94,0.285-1.332c0.159-0.163,0.271-0.372,0.398-0.55
	c1.312,0.073,2.608-0.039,3.885,0.076c0.047,0.153-0.104,0.307,0.1,0.404c0.026-0.047,0.069-0.089,0.075-0.136
	c0.033-0.244,0.178-0.307,0.405-0.295c1.563,0.077,3.126,0.154,4.688,0.217c0.629,0.026,1.265,0.07,1.889,0.01
	c0.614-0.061,1.226-0.106,1.842-0.113c0.041-0.001,0.097,0.011,0.12-0.011c0.23-0.226,0.514-0.126,0.779-0.136
	c0.329-0.012,0.658-0.016,0.986-0.038c1.071-0.072,2.138-0.059,3.198,0.137c0.177,0.032,0.363,0.097,0.554,0.034
	c-0.02-0.072-0.03-0.115-0.043-0.159c0.235-0.034,0.466,0.108,0.65-0.096c0.302-0.336,0.711-0.493,1.11-0.67
	c0.206-0.092,0.458-0.175,0.575-0.343c0.094-0.133,0.171-0.209,0.312-0.258c0.062-0.021,0.112-0.076,0.166-0.118
	c0.357-0.288,0.714-0.577,1.085-0.877c-0.006-0.01-0.039-0.076-0.071-0.137c0.073-0.064,0.131-0.113,0.207-0.181
	c-0.419-0.224-0.843-0.321-1.273-0.266c-0.893,0.115-1.751-0.07-2.608-0.248c-1.069-0.221-2.146-0.316-3.233-0.31
	c-0.713,0.005-1.426,0.071-2.138,0.061c-0.866-0.013-1.727-0.014-2.587,0.096c-0.42,0.054-0.85,0.046-1.274,0.031
	c-0.835-0.032-1.668-0.094-2.503-0.132c-1.136-0.053-2.271-0.093-3.406-0.143c-0.34-0.015-0.679-0.045-1.051-0.069
	c0.05-0.108,0.078-0.183,0.119-0.251c0.506-0.846,1.02-1.688,1.52-2.539c0.459-0.78,0.931-1.556,1.204-2.426
	c0.174-0.549,0.338-1.1,0.49-1.655c0.132-0.474,0.247-0.953,0.359-1.431c0.083-0.357,0.082-0.753,0.243-1.069
	c0.225-0.441,0.204-0.859,0.09-1.296c-0.068-0.267,0.016-0.448,0.224-0.599c0.073,0.029,0.139,0.077,0.198,0.072
	c0.05-0.004,0.117-0.112,0.138-0.101c0.3,0.158,0.405-0.073,0.544-0.252c0.039-0.051,0.095-0.102,0.154-0.125
	c0.205-0.079,0.434-0.097,0.6-0.275c0.03-0.032,0.164,0.033,0.241,0.052c0.016,0.335-0.284,0.33-0.455,0.452
	c0.258,0.175,0.455,0.068,0.629-0.078c0.124,0.105,0.23,0.196,0.336,0.286c0.019-0.147,0.034-0.268,0.048-0.388
	c0.024-0.214-0.084-0.339-0.312-0.376c-0.052-0.007-0.101-0.034-0.151-0.051c0-0.029,0-0.058,0-0.087
	c0.146-0.033,0.293-0.066,0.44-0.1c-0.093-0.139-0.185-0.277-0.288-0.434C66.66,6.539,66.83,6.446,67,6.354
	c-0.008-0.021-0.017-0.042-0.023-0.062c-0.181,0.043-0.36,0.086-0.494,0.118c-0.104,0.146-0.167,0.333-0.259,0.348
	c-0.232,0.04-0.237,0.217-0.301,0.433c-0.198-0.132-0.376-0.13-0.504,0.052c-0.226,0.325-0.613,0.343-0.919,0.535
	c-0.06-0.125-0.103-0.213-0.146-0.303c-0.091,0.032-0.153,0.053-0.216,0.075l0.009-0.001c0.053,0.119,0.104,0.239,0.189,0.429
	c-0.196-0.121-0.31-0.192-0.422-0.262c-0.157-0.176-0.244-0.396-0.005-0.625c-0.026-0.013-0.053-0.026-0.079-0.039
	c-0.132,0.095-0.264,0.191-0.429,0.311c-0.198-0.479-0.39-0.938-0.577-1.389c0.241-0.245,0.241-0.245,0.038-0.411
	c-0.051,0.067-0.103,0.134-0.173,0.226c-0.283-0.419-0.576-0.782-0.678-1.24c-0.069-0.305-0.34-0.364-0.537-0.516
	C61.157,4.18,61.11,3.9,61.022,3.726c-0.523-1.051-1.304-1.844-2.348-2.379c-0.243-0.125-0.484-0.25-0.725-0.378
	c-0.058-0.032-0.141-0.071-0.154-0.124c-0.072-0.244-0.289-0.266-0.474-0.337c-0.205-0.079-0.462-0.099-0.604-0.238
	c-0.334-0.325-0.731-0.261-1.119-0.266c-0.099-0.001-0.199,0.104-0.292,0.156c-0.102-0.028-0.206-0.092-0.301-0.079
	c-0.362,0.049-0.737,0.064-1.032,0.34c-0.084,0.078-0.222,0.097-0.335,0.144c-0.197,0.083-0.412,0.142-0.59,0.255
	c-0.436,0.278-0.73,0.696-1.04,1.101c-0.542,0.706-0.943,1.48-1.173,2.336c-0.216,0.806-0.4,1.617-0.199,2.46
	c0.017,0.074-0.02,0.161-0.032,0.242c-0.026,0.176-0.038,0.356-0.083,0.528C50.39,7.989,50.527,8.562,50.136,9
	c-0.016,0.018-0.013,0.053-0.016,0.081c-0.067,0.622-0.304,1.226-0.229,1.863c0.062,0.541,0.096,1.095,0.236,1.618
	c0.181,0.665,0.316,1.333,0.4,2.014c0.029,0.23,0.058,0.462,0.073,0.694c0.015,0.246,0.014,0.493,0.02,0.739
	c0.005,0.232-0.039,0.48,0.026,0.693c0.075,0.247-0.138,0.363-0.183,0.551c-0.055,0.238,0.08,0.436,0.019,0.649
	c-0.063,0.222-0.134,0.441-0.194,0.665c-0.021,0.079-0.034,0.166-0.021,0.245c0.011,0.066,0.056,0.134,0.103,0.186
	c0.13,0.144,0.119,0.231-0.054,0.272c-0.079,0.019-0.164,0.028-0.245,0.021c-0.792-0.072-1.585-0.144-2.376-0.229
	c-0.187-0.02-0.365-0.1-0.551-0.137c-0.167-0.034-0.292,0.038-0.353,0.201c-0.169,0.458-0.232,0.962-0.575,1.347
	c-0.101,0.114-0.195,0.236-0.286,0.359c-0.143,0.197-0.279,0.399-0.421,0.604c0.048,0.119,0.102,0.254,0.16,0.396
	c0.57,0.181,1.164,0.314,1.71,0.556c0.587,0.261,1.234,0.225,1.847,0.451c-0.055,0.085-0.083,0.149-0.128,0.195
	c-0.317,0.32-0.635,0.641-0.958,0.954c-0.315,0.303-0.644,0.59-0.953,0.896c-0.257,0.255-0.497,0.528-0.744,0.792
	c0.102-0.061,0.197-0.136,0.306-0.176c0.05-0.02,0.125,0.027,0.188,0.082c-0.169,0.014-0.268,0.351-0.483,0.088
	c-0.113,0.09-0.233,0.171-0.333,0.271c-0.108,0.109-0.198,0.235-0.298,0.356c0.017,0.018,0.043,0.043,0.098,0.097
	c-0.223,0.113-0.432,0.217-0.64,0.326c-0.047,0.025-0.089,0.063-0.129,0.1c-0.486,0.437-0.971,0.874-1.455,1.313
	c-0.012,0.011-0.003,0.046-0.004,0.083c0.095,0.011,0.19,0.024,0.286,0.036c0.011,0.025,0.021,0.049,0.032,0.075
	c-0.183,0.119-0.361,0.246-0.55,0.355c-0.254,0.147-0.518,0.275-0.7,0.523c-0.112,0.154-0.248,0.292-0.383,0.427
	c-0.175,0.173-0.336,0.415-0.547,0.481c-0.28,0.087-0.454,0.272-0.657,0.438c-0.18,0.146-0.348,0.306-0.521,0.46
	c-0.109-0.036-0.198-0.066-0.331-0.11c-0.117-0.437-0.331-0.897-0.335-1.359c-0.003-0.44-0.157-0.811-0.269-1.206
	c-0.138-0.484-0.303-0.962-0.45-1.423c0.289-0.352,0.548-0.671,0.81-0.989c1.125-1.369,2.148-2.812,3.044-4.341
	c0.326-0.556,0.683-1.107,0.904-1.706c0.24-0.65,0.583-1.234,0.889-1.844c0.151-0.301,0.279-0.634,0.319-0.964
	c0.124-1.035,0.175-2.069-0.054-3.107c-0.183-0.827-0.53-1.57-1.067-2.199c-0.778-0.913-1.698-1.671-2.779-2.218
	c-1.389-0.703-2.824-0.824-4.301-0.328c-0.285,0.094-0.552,0.245-0.826,0.371c-1.059,0.485-2.021,1.111-2.787,1.999
	c-0.267,0.309-0.495,0.653-0.719,0.996c-0.11,0.168-0.151,0.381-0.257,0.554c-0.334,0.55-0.697,1.083-1.025,1.637
	c-0.431,0.723-0.8,1.472-0.832,2.339c-0.029,0.789,0.197,1.544,0.306,2.315c0.048,0.337,0.167,0.668,0.178,1.005
	c0.021,0.69,0.151,1.358,0.322,2.02c0.151,0.584,0.313,1.167,0.506,1.737c0.098,0.291,0.045,0.489-0.172,0.691
	c-0.422,0.392-0.808,0.823-1.243,1.2c-1.16,1.007-2.336,1.996-3.511,2.986c-0.872,0.734-1.752,1.458-2.629,2.186
	c-1.023,0.848-2.06,1.684-3.07,2.549c-1.008,0.866-1.989,1.763-2.984,2.645c-0.768,0.68-1.536,1.36-2.308,2.036
	c-0.62,0.541-1.227,1.095-1.868,1.608c-0.771,0.616-1.582,1.182-2.358,1.792c-0.94,0.738-1.919,1.42-2.935,2.047
	c-1.016,0.626-2.032,1.25-3.056,1.865c-0.606,0.363-1.227,0.707-1.858,1.069c-0.036-0.092-0.044-0.172-0.087-0.211
	c-0.062-0.056-0.15-0.106-0.229-0.109c-0.038,0-0.115,0.117-0.11,0.176c0.007,0.118-0.021,0.172-0.137,0.208
	c-0.206,0.066-0.275,0.242-0.275,0.455c-0.135-0.052-0.242-0.094-0.348-0.136c-0.011,0.019-0.021,0.038-0.032,0.056
	c0.046,0.063,0.093,0.127,0.164,0.222C1.763,48.142,0.935,49.067,0,49.836c0.215,0.291,0.392,0.534,0.601,0.815
	c-0.139,0.115-0.275,0.228-0.429,0.354c0.296,0.188,0.5,0.518,0.951,0.435c-0.052,0.136-0.087,0.227-0.145,0.377
	c0.176-0.027,0.292-0.047,0.417-0.067C1.342,51.894,1.27,51.996,1.45,52.11c0.326,0.207,0.613,0.464,0.621,0.903
	c0,0.026,0.056,0.052,0.068,0.062c0.183-0.039,0.348-0.073,0.523-0.109c0.024,0.14,0.015,0.248,0.062,0.319
	c0.058,0.086,0.164,0.14,0.249,0.208c-0.316,0.097-0.508,0.181-0.523,0.453c0.266,0.27,0.536,0.137,0.819,0.011
	c0.336,0.4,0.667,0.794,0.981,1.169c0.321,0.098,0.511-0.068,0.721-0.261c0.544-0.5,1.075-1.027,1.676-1.451
	c0.782-0.553,1.624-1.021,2.446-1.516c1.329-0.797,2.678-1.559,3.988-2.385c0.823-0.518,1.592-1.117,2.378-1.69
	c0.877-0.639,1.779-1.245,2.608-1.94c1.62-1.355,3.201-2.758,4.789-4.152c1.021-0.896,2.003-1.839,3.042-2.712
	c1.511-1.271,3.062-2.492,4.588-3.746c1.103-0.906,2.19-1.832,3.286-2.748c0.121-0.101,0.246-0.196,0.382-0.305
	c0.156,0.256,0.306,0.455,0.405,0.677c0.352,0.797,0.688,1.601,1.025,2.405c0.053,0.125,0.091,0.26,0.111,0.394
	c0.011,0.087,0.009,0.215-0.044,0.266c-0.204,0.196-0.42,0.381-0.649,0.548c-0.297,0.215-0.617,0.397-0.912,0.615
	c-0.535,0.392-1.056,0.803-1.585,1.201c-0.231,0.174-0.469,0.337-0.701,0.507c-0.242,0.181-0.478,0.371-0.722,0.548
	c-0.233,0.168-0.462,0.345-0.712,0.484c-0.268,0.148-0.389,0.414-0.583,0.621c-0.252,0.269-0.54,0.504-0.82,0.743
	c-0.655,0.559-1.351,1.067-1.932,1.711c-0.513,0.567-1.062,1.102-1.587,1.658c-0.3,0.319-0.612,0.632-0.875,0.98
	c-0.557,0.739-1.084,1.5-1.622,2.254c-0.142,0.198-0.28,0.399-0.415,0.604c-0.171,0.261-0.336,0.525-0.505,0.787
	c-0.072,0.111-0.175,0.212-0.215,0.334c-0.227,0.669-0.483,1.318-0.556,2.046c-0.073,0.72-0.354,1.419-0.544,2.132
	c-0.055-0.008-0.111-0.015-0.207-0.027c-0.006,0.891-0.068,1.756-0.002,2.611c0.054,0.7,0.097,1.411,0.278,2.099
	c0.098,0.37,0.26,0.741,0.266,1.114c0.011,0.738,0.238,1.429,0.392,2.131c0.179,0.813,0.523,1.575,0.983,2.278
	c0.097,0.148,0.19,0.305,0.259,0.468c0.219,0.517,0.566,0.942,1.023,1.244c0.535,0.354,1.132,0.616,1.67,0.967
	c0.506,0.332,1.052,0.527,1.637,0.603c1.087,0.139,2.178,0.251,3.27,0.351c0.422,0.039,0.854,0.055,1.271,0.007
	c0.543-0.062,1.083-0.179,1.614-0.309c0.598-0.147,1.192-0.312,1.737-0.613c0.262-0.145,0.527-0.288,0.799-0.413
	c0.678-0.313,1.359-0.62,2.044-0.92c0.221-0.097,0.412-0.324,0.699-0.184c0.027,0.013,0.079-0.019,0.117-0.033
	c0.674-0.267,1.21-0.724,1.598-1.314c0.471-0.718,0.881-1.478,1.3-2.23c0.451-0.809,0.916-1.614,1.315-2.45
	c0.535-1.117,0.78-2.332,1.026-3.538c0.216-1.06,0.325-2.135,0.454-3.208c0.063-0.517,0.195-1.022,0.152-1.549
	c-0.002-0.025,0.011-0.053,0.013-0.08c0.036-0.503,0.093-1.005,0.099-1.509c0.008-0.617-0.022-1.235-0.043-1.854
	c-0.012-0.376-0.038-0.752-0.055-1.127c-0.005-0.107-0.033-0.225-0.001-0.32c0.104-0.312,0.08-0.616,0.018-0.932
	c-0.039-0.198-0.026-0.408-0.048-0.611c-0.045-0.42-0.106-0.839-0.146-1.26c-0.021-0.208-0.008-0.418-0.011-0.654
	c-0.232-0.154-0.204-0.442-0.238-0.706c-0.011-0.087,0.024-0.221-0.022-0.256c-0.205-0.161-0.172-0.392-0.215-0.601
	c-0.054-0.253-0.094-0.511-0.169-0.759c-0.04-0.131-0.168-0.235-0.206-0.366c-0.127-0.447-0.239-0.899-0.339-1.354
	c-0.029-0.133,0.001-0.279,0.004-0.401c-0.057-0.065-0.114-0.126-0.158-0.177c0.095-0.112,0.165-0.203,0.244-0.288
	c0.157-0.164,0.313-0.331,0.481-0.483c0.11-0.101,0.255-0.165,0.358-0.271c0.354-0.36,0.7-0.729,1.043-1.098
	c0.326-0.35,0.681-0.68,0.959-1.065c0.514-0.708,1.245-1.168,1.872-1.747l0.021-0.006c0.147-0.222,0.345-0.383,0.549-0.538
	c0.023,0.024,0.047,0.048,0.07,0.073c-0.125,0.148-0.252,0.297-0.379,0.445c0.133-0.11,0.257-0.252,0.409-0.293
	c0.39-0.109,0.796-0.163,1.197-0.23c0.104-0.017,0.217,0.016,0.32-0.003c0.225-0.044,0.447-0.107,0.68-0.164
	c0.026-0.104,0.053-0.206,0.075-0.291c-0.117-0.114-0.221-0.217-0.329-0.322c0.135-0.103,0.192-0.105,0.398-0.022
	c0.019-0.075,0.038-0.146,0.053-0.206c-0.25-0.065-0.524,0.13-0.757-0.16c0.393-0.381,0.707-0.828,1.165-1.098
	c0.311,0.328,0.355,0.725,0.42,1.115c0.021,0.122,0.038,0.247,0.077,0.363c0.026,0.082,0.084,0.154,0.165,0.289
	c0.061-0.116,0.098-0.188,0.135-0.259c0.079,0.231,0.105,0.404,0.12,0.577c0.013,0.164,0.249,0.313,0.016,0.507
	c-0.089-0.214-0.175-0.422-0.274-0.658c-0.003,0.065-0.009,0.103-0.005,0.14c0.098,0.991,0.374,1.959,0.356,2.966
	c-0.003,0.252,0.087,0.505,0.093,0.759c0.007,0.24-0.053,0.481-0.062,0.722c-0.015,0.434-0.02,0.868-0.016,1.302
	c0,0.119,0.079,0.237,0.075,0.354c-0.012,0.31-0.077,0.619-0.072,0.927c0.011,0.736-0.014,1.476,0.141,2.207
	c0.061,0.28,0.073,0.568,0.095,0.82l0.422,3.671c0.053,0.252,0.105,0.462,0.14,0.675c0.105,0.667,0.351,1.288,0.617,1.901
	c0.321,0.741,0.652,1.478,0.984,2.214c0.128,0.285,0.233,0.589,0.411,0.841c0.434,0.614,0.889,1.216,1.366,1.797
	c0.208,0.254,0.443,0.54,0.854,0.449c0.234,0.181,0.558,0.313,0.688,0.552c0.355,0.649,0.363,0.692,0.887,0.946
	c0.785,0.383,1.636,0.37,2.475,0.434c0.524,0.039,1.041-0.016,1.55-0.133c0.264-0.061,0.521-0.156,0.786-0.204
	c0.293-0.054,0.594-0.067,0.892-0.104c0.079-0.009,0.202-0.012,0.228-0.059c0.1-0.191,0.237-0.167,0.411-0.147
	c0.112,0.012,0.232-0.068,0.353-0.097c0.559-0.134,0.881-0.619,1.338-0.858c-0.098-0.123-0.177-0.226-0.258-0.327
	c-0.062,0.011-0.132,0.023-0.198,0.036c0.119-0.192,0.213-0.366,0.326-0.524c0.15-0.209,0.3-0.425,0.481-0.604
	c0.317-0.315,0.677-0.589,0.988-0.908c0.363-0.372,0.677-0.793,1.045-1.163c0.371-0.374,0.421-0.957,0.857-1.282
	c0.021-0.014,0.04-0.049,0.036-0.07c-0.046-0.281,0.185-0.376,0.352-0.591c0.091,0.265,0.161,0.471,0.231,0.675
	c0.211,0.622,0.383,1.259,0.643,1.86c0.385,0.894,0.816,1.768,1.253,2.637c0.239,0.478,0.5,0.948,0.802,1.386
	c0.356,0.519,0.762,1.002,1.157,1.493c0.23,0.286,0.461,0.577,0.727,0.83c0.525,0.498,1.128,0.913,1.563,1.508
	c0.068,0.094,0.226,0.123,0.344,0.178c0.048,0.021,0.141,0.015,0.148,0.041c0.075,0.257,0.321,0.223,0.492,0.265
	c0.558,0.139,1.124,0.241,1.688,0.347c0.069,0.014,0.151-0.031,0.226-0.056c0.381-0.119,0.737-0.3,1.17-0.223
	c0.396,0.07,0.779-0.055,1.117-0.268c0.088-0.256-0.07-0.599,0.339-0.723c-0.096-0.172-0.15-0.344-0.264-0.458
	c-0.142-0.145-0.104-0.321-0.097-0.461c0.012-0.192-0.24-0.234-0.169-0.45c0.13-0.056,0.275-0.13,0.429-0.18
	c0.309-0.098,0.524-0.02,0.731,0.243c0.063,0.081,0.134,0.154,0.216,0.248c-0.23,0.141-0.452,0.275-0.675,0.41
	c0.009,0.021,0.017,0.042,0.025,0.062c0.168-0.029,0.335-0.058,0.504-0.087c0.045,0.084,0.082,0.155,0.139,0.264
	c0.252-0.161,0.478,0.177,0.758,0.036c-0.086,0.101-0.172,0.203-0.258,0.305c0.123-0.011,0.222-0.041,0.289-0.103
	c0.516-0.485,1.049-0.941,1.439-1.56c0.623-0.983,1.317-1.922,1.988-2.874c0.161-0.226,0.283-0.452,0.336-0.733
	c0.085-0.456,0.192-0.912,0.339-1.353c0.218-0.648,0.419-1.311,0.832-1.87c0.187-0.254,0.287-0.523,0.314-0.834
	c0.084-0.975,0.32-1.918,0.621-2.846c0.084-0.26,0.19-0.512,0.296-0.765c0.09-0.212,0.207-0.415,0.286-0.63
	c0.035-0.096,0.056-0.269,0.003-0.312c-0.234-0.202-0.146-0.454-0.131-0.683c0.024-0.379,0.119-0.754,0.12-1.132
	c0.001-0.416,0.066-0.793,0.243-1.176c0.102-0.221,0.312-0.523-0.025-0.765c-0.021-0.016-0.008-0.078-0.011-0.119
	c-0.021-0.249,0.017-0.493-0.009-0.749c-0.043-0.437,0.037-0.892,0.105-1.333c0.041-0.263,0.168-0.51,0.237-0.77
	c0.083-0.317,0.176-0.637,0.207-0.961c0.036-0.37,0.178-0.786-0.239-1.045c0.048-0.384,0.095-0.759,0.146-1.177
	c0.142-0.034,0.308-0.101,0.479-0.113c0.794-0.05,1.59-0.078,2.383-0.128c0.82-0.051,1.641-0.105,2.459-0.187
	c0.707-0.069,1.41-0.175,2.113-0.273c0.234-0.033,0.464-0.096,0.714-0.15c0.385,0.602,0.461,1.303,0.402,2.001
	c-0.075,0.897-0.22,1.792-0.364,2.684c-0.074,0.458-0.196,0.909-0.328,1.354c-0.438,1.475-0.713,2.987-0.929,4.503
	c-0.201,1.417-0.574,2.79-0.88,4.181c-0.117,0.535-0.216,1.075-0.316,1.613c-0.147,0.78-0.315,1.557-0.421,2.343
	c-0.047,0.342-0.021,0.719,0.073,1.052c0.188,0.658,0.593,1.212,1.079,1.678c1.209,1.158,2.659,1.866,4.296,2.199
	c0.711,0.145,1.419,0.302,2.133,0.422c0.661,0.112,1.328,0.235,1.995,0.26c1.117,0.042,2.236-0.019,3.353-0.122
	c0.406-0.038,0.816-0.036,1.226-0.041c0.41-0.004,0.821,0.029,1.23,0.008c0.572-0.032,1.142-0.116,1.713-0.147
	c1.054-0.056,2.097-0.187,3.121-0.425c0.568-0.133,1.121-0.344,1.678-0.529c1.251-0.416,2.521-0.676,3.843-0.439
	c0.31,0.054,0.606,0.18,0.917,0.224c0.273,0.038,0.524,0.085,0.74,0.277c0.088,0.079,0.222,0.149,0.333,0.146
	c0.293-0.006,0.512,0.158,0.758,0.265c0.088,0.04,0.188,0.052,0.282,0.076c0.012-0.024,0.021-0.049,0.033-0.074
	C125.284,57.361,125.219,57.3,125.143,57.26 M84.821,27.364c-0.283-0.25-0.571-0.411-0.496-0.811
	c0.02-0.102-0.038-0.217-0.076-0.399c-0.291,0.329,0.06,0.736-0.28,0.956c-0.14-0.257-0.113-0.791,0.061-1.195
	c0.124-0.008,0.252-0.018,0.322-0.022c0.057-0.287,0.102-0.524,0.152-0.783c0.219,0.185,0.287,0.368,0.214,0.604
	c-0.017,0.053,0.021,0.175,0.057,0.185c0.266,0.072,0.169,0.265,0.162,0.432c-0.006,0.178,0,0.356-0.019,0.534
	C84.903,27.016,84.861,27.166,84.821,27.364 M86.351,23.562c-0.09-0.083-0.17-0.158-0.218-0.201
	c-0.104,0.025-0.19,0.046-0.276,0.067c-0.011-0.027-0.021-0.054-0.03-0.081c0.158-0.086,0.314-0.171,0.474-0.258
	C86.483,23.217,86.531,23.355,86.351,23.562 M86.445,23.02c0.218-0.14,0.359-0.227,0.512,0.014
	C86.766,23.248,86.659,22.989,86.445,23.02 M36.256,61.467c-0.466,0.305-0.887,0.578-1.308,0.853
	c-0.11,0.071-0.21,0.121-0.269,0.275c-0.05,0.138-0.246,0.228-0.386,0.324c-0.155,0.107-0.319,0.202-0.483,0.294
	c-0.13,0.073-0.259,0.163-0.401,0.194c-0.199,0.045-0.394,0.051-0.492,0.285c-0.023,0.059-0.166,0.092-0.256,0.097
	c-0.463,0.026-0.926,0.046-1.391,0.054c-0.231,0.003-0.453-0.035-0.642,0.171c-0.102,0.112-0.296,0.077-0.694-0.021
	c0.143-0.259,0.544-0.242,0.616-0.565c-0.54-0.2-1.141-0.078-1.677-0.35c0.081-0.217,0.224-0.255,0.422-0.217
	c0.323,0.063,0.647,0.122,0.974,0.163c0.129,0.015,0.297,0.072,0.386-0.128c-0.316,0.055-1.14-0.031-1.487-0.155
	c0.049-0.08,0.145-0.166,0.133-0.23c-0.017-0.092-0.114-0.169-0.176-0.252c0.04-0.034,0.077-0.067,0.129-0.115
	c-0.117-0.047-0.215-0.11-0.319-0.125c-0.293-0.038-0.471-0.24-0.596-0.462c-0.173-0.308-0.304-0.642-0.429-0.973
	c-0.045-0.118-0.055-0.273-0.02-0.394c0.095-0.325-0.051-0.58-0.265-0.755c-0.206-0.167-0.307-0.376-0.316-0.593
	c-0.025-0.602-0.207-1.167-0.431-1.701c-0.271-0.646-0.195-1.221,0.101-1.809c0.037-0.073,0.068-0.15,0.098-0.226
	c0.014-0.038,0.018-0.079,0.027-0.117c-0.209-0.2-0.294-0.428-0.247-0.72c0.066-0.425,0.102-0.854,0.152-1.295
	c-0.24-0.173-0.242-0.173-0.106-0.428c0.16-0.298,0.323-0.594,0.518-0.951c0.004,0.167,0.007,0.269,0.009,0.376
	c0.014-0.003,0.041-0.002,0.048-0.013c0.057-0.078,0.097-0.169,0.164-0.235c0.09-0.09,0.151-0.279,0.34-0.14
	c0.104-0.125,0.241-0.235,0.305-0.379c0.224-0.506,0.661-0.85,0.957-1.303c0.239-0.363,0.519-0.726,0.856-0.99
	c0.415-0.327,0.687-0.789,1.125-1.082c0.034-0.022,0.069-0.051,0.09-0.084c0.326-0.508,0.858-0.805,1.264-1.231
	c0.167-0.175,0.301-0.392,0.493-0.53c0.418-0.302,0.738-0.71,1.209-0.967c0.555-0.303,1.04-0.736,1.555-1.115
	c0.379-0.67,1.122-0.907,1.707-1.492c0.032,0.353,0.072,0.613,0.075,0.875c0.014,0.861,0.009,1.724,0.022,2.587
	c0.008,0.573,0.04,1.149,0.049,1.723c0.007,0.396-0.016,0.791-0.01,1.187c0.004,0.281-0.114,0.566,0.022,0.848
	c0.025,0.052-0.01,0.134-0.022,0.199c-0.032,0.161-0.158,0.327,0.043,0.47c0.019,0.014,0.014,0.088-0.004,0.118
	c-0.114,0.188-0.081,0.375-0.055,0.582c0.03,0.24-0.03,0.49-0.051,0.735c-0.023,0.26-0.047,0.519-0.07,0.777
	c-0.021,0.246-0.039,0.493-0.065,0.738c-0.024,0.244-0.04,0.491-0.095,0.729c-0.108,0.465-0.237,0.927-0.365,1.387
	c-0.078,0.282-0.243,0.526-0.215,0.857c0.02,0.222-0.146,0.46-0.225,0.679c0.08,0.101,0.148,0.187,0.248,0.312
	c0,0,0.073,0,0.146,0.002c-0.011,0.225-0.07,0.446-0.017,0.636c0.053,0.194-0.161,0.35,0.001,0.571
	c0.097,0.132,0.004,0.405-0.004,0.605c0.098,0.001,0.268-0.044,0.326,0.017c0.103,0.107,0.089,0.277-0.006,0.416
	c-0.091,0.132-0.179,0.268-0.292,0.438c0.146-0.035,0.264-0.064,0.411-0.1c-0.064,0.127-0.119,0.232-0.179,0.353
	c0.039,0.054,0.083,0.113,0.134,0.185c-0.225,0.17-0.435,0.336-0.651,0.492c-0.208,0.149-0.425,0.289-0.664,0.449
	C36.115,61.35,36.177,61.401,36.256,61.467 M36.426,61.307c0.269-0.339,0.671-0.461,1.052-0.617
	C37.204,61.027,36.821,61.177,36.426,61.307 M45.397,28.164c-0.258,0.228-0.522,0.448-0.825,0.701
	c-0.068-0.107-0.13-0.208-0.244-0.389c0.568,0.188,0.714-0.311,1.075-0.46C45.402,28.074,45.422,28.143,45.397,28.164
	 M46.268,27.363c-0.021-0.021-0.042-0.042-0.062-0.062c0.101-0.098,0.201-0.197,0.338-0.331
	C46.58,27.276,46.326,27.222,46.268,27.363 M50.6,14.487c0.024-0.013,0.05-0.026,0.076-0.04c0.063,0.074,0.16,0.14,0.182,0.224
	c0.034,0.136-0.009,0.291,0.028,0.426c0.038,0.138,0.082,0.258-0.042,0.364C50.763,15.136,50.681,14.812,50.6,14.487 M50.842,15.483
	c0.16,0.2,0.157,0.207-0.033,0.435C50.82,15.773,50.832,15.628,50.842,15.483 M50.818,16.089c0.04-0.005,0.077-0.01,0.115-0.015
	c0.01,0.125,0.021,0.251,0.03,0.378c-0.025,0.003-0.052,0.007-0.078,0.011C50.863,16.338,50.841,16.213,50.818,16.089
	 M49.712,23.431c-0.094-0.188-0.027-0.284,0.453-0.59C49.989,23.071,49.861,23.238,49.712,23.431 M50.194,23.357
	c0.183-0.453,0.229-0.481,0.603-0.358C50.646,23.208,50.518,23.426,50.194,23.357 M52.333,33.116
	c0.146,0.182,0.197,0.422,0.208,0.879C52.325,33.75,52.311,33.698,52.333,33.116 M59.416,14.163
	c-0.065-0.418,0.123-0.696,0.328-0.967C59.7,13.525,59.713,13.875,59.416,14.163 M56.931,0.593c0.002-0.012,0.003-0.024,0.005-0.036
	c0.1,0.013,0.198,0.025,0.298,0.038c-0.001,0.012-0.003,0.023-0.004,0.035C57.13,0.618,57.03,0.605,56.931,0.593 M57.269,16.47
	c-0.042,0.069-0.094,0.132-0.172,0.24c-0.098-0.194-0.145-0.286-0.193-0.387c-0.169,0.219-0.346,0.448-0.534,0.694
	c-0.029-0.048-0.099-0.117-0.115-0.198c-0.08-0.387-0.148-0.777-0.217-1.167c-0.086-0.498-0.158-0.997-0.25-1.493
	c-0.078-0.428-0.138-0.854-0.161-1.292c-0.024-0.439,0.104-0.841,0.238-1.227c0.077-0.219,0.126-0.441,0.147-0.655
	c0.062-0.611,0.08-1.228,0.101-1.843c0.015-0.42-0.07-0.845,0.062-1.26c0.011-0.039,0.027-0.076,0.054-0.149
	c0.562,0.714,0.978,1.494,1.445,2.252c0.066-0.011,0.136-0.024,0.204-0.037c0.047,0.129,0.088,0.243,0.146,0.406
	c0.083-0.132,0.122-0.271,0.206-0.308c0.075-0.032,0.198,0.048,0.293,0.077c0.179-0.112,0.359-0.225,0.569-0.356
	c0.032,0.047,0.077,0.113,0.144,0.209c0.029-0.071,0.053-0.124,0.079-0.187c0.059,0.055,0.113,0.108,0.207,0.197
	c0.093-0.104,0.182-0.198,0.261-0.297c0.176-0.217,0.233-0.208,0.377,0.063c0.012,0.022,0.038,0.039,0.057,0.057
	c0.143-0.241,0.365-0.314,0.655-0.297c-0.028,0.588-0.14,1.166-0.318,1.722c-0.204,0.633-0.474,1.246-0.719,1.867
	c-0.01,0.024-0.044,0.041-0.072,0.059c0.027-0.106,0.055-0.21,0.083-0.315c-0.23-0.097-0.272,0.106-0.334,0.234
	c-0.106,0.222-0.174,0.46-0.28,0.682c-0.055,0.115-0.162,0.206-0.238,0.311c-0.33,0.456-0.778,0.813-1.06,1.312
	C57.725,15.754,57.492,16.11,57.269,16.47 M74.785,30.38l-0.01-0.252c0.032-0.001,0.065-0.002,0.099-0.003
	c-0.001,0.09-0.002,0.179-0.004,0.269C74.842,30.389,74.813,30.385,74.785,30.38 M75.403,48.945
	c-0.104-0.284-0.203-0.572-0.31-0.855c-0.1-0.264-0.226-0.519-0.307-0.787c-0.062-0.209-0.072-0.434-0.11-0.65
	c-0.015-0.08-0.025-0.172-0.07-0.231c-0.354-0.477-0.285-1.018-0.293-1.597c0.162,0.057,0.245,0.148,0.394,0.001
	c0.032,0.241,0.048,0.446,0.088,0.646c0.116,0.57,0.263,1.135,0.357,1.708c0.053,0.322,0.28,0.627,0.113,0.982
	c-0.032,0.068,0.021,0.185,0.051,0.273c0.053,0.161,0.117,0.319,0.177,0.479C75.463,48.924,75.433,48.934,75.403,48.945
	 M78.102,53.621c-0.089-0.082-0.139-0.14-0.2-0.18c-0.136-0.093-0.187-0.322-0.424-0.262c-0.028,0.008-0.091-0.059-0.117-0.103
	c-0.228-0.385-0.463-0.766-0.67-1.162c-0.13-0.248-0.217-0.52-0.318-0.782c-0.04-0.098-0.069-0.201-0.103-0.301
	c0.202,0.078,0.278,0.28,0.503,0.278c0.041,0,0.088,0.097,0.123,0.153c0.366,0.606,0.738,1.208,1.091,1.82
	C78.065,53.222,78.164,53.381,78.102,53.621 M87.862,27.289c-0.208-0.393-0.11-0.779,0.007-1.243
	C88.136,26.524,87.935,26.903,87.862,27.289 M101.72,48.264c-0.041-0.342,0.02-0.625,0.18-0.908
	C101.945,47.669,101.853,47.954,101.72,48.264 M101.648,50.26C101.649,50.265,101.649,50.265,101.648,50.26 M101.771,51.418
	c0.398,0.232,0.797,0.464,1.195,0.696C102.475,52.06,102.089,51.803,101.771,51.418 M102.608,51.796
	c-0.275-0.166-0.555-0.354-0.762-0.593c-0.152-0.177-0.188-0.451-0.248-0.696c0.426,0.47,0.982,0.73,1.476,1.105
	c-0.201-0.062-0.401-0.123-0.603-0.185c0.299,0.315,0.718,0.39,1.07,0.614C103.187,52.136,102.89,51.965,102.608,51.796"/>
<path fill="#121C26" d="M35.598,18.314l0.312,1.887c0,0,5.395-7.807,0.632-4.253C35.817,16.488,35.449,17.41,35.598,18.314"/>
</svg>
