<?xml version="1.0" encoding="UTF-8"?>
<svg width="31px" height="20px" viewBox="0 0 31 20" version="1.1" xmlns="http://www.w3.org/2000/svg" xmlns:xlink="http://www.w3.org/1999/xlink">
    <!-- Generator: Sketch 48.2 (47327) - http://www.bohemiancoding.com/sketch -->
    <title>Shape Copy</title>
    <desc>Created with Sketch.</desc>
    <defs></defs>
    <g id="Splash-page-Copy" stroke="none" stroke-width="1" fill="none" fill-rule="evenodd" transform="translate(-705.000000, -981.000000)">
        <polygon id="Shape-Copy" fill="#FFFFFF" transform="translate(720.500000, 991.000000) rotate(-270.000000) translate(-720.500000, -991.000000) " points="714.603917 976 711 979.511396 722.790467 991.000828 711 1002.4886 714.603917 1006 730 991.000828"></polygon>
    </g>
</svg>